<svg id="_1" data-name="1" xmlns="http://www.w3.org/2000/svg" width="40" height="40" viewBox="0 0 40 40">
  <title>Intern-Responsive-Task</title>
  <g id="_1-2" data-name="1">
    <path d="M20,3A17,17,0,1,1,3,20,17,17,0,0,1,20,3m0-2A19,19,0,1,0,39,20,19,19,0,0,0,20,1h0Z" fill="#1956a1"/>
    <path d="M26.58,25v2.9H15.39V25h4.16V14.8a3.48,3.48,0,0,1-.82.73,9.27,9.27,0,0,1-1.23.7,9.77,9.77,0,0,1-1.41.54,4.59,4.59,0,0,1-1.29.22V14a3.39,3.39,0,0,0,1.36-.35,11.08,11.08,0,0,0,1.49-.82,11.59,11.59,0,0,0,1.26-.94,2.62,2.62,0,0,0,.63-0.67h3.31V25h3.72Z" fill="#e4572e"/>
  </g>
</svg>
