<svg id="_2" data-name="2" xmlns="http://www.w3.org/2000/svg" width="40" height="40" viewBox="0 0 40 40">
  <title>Intern-Responsive-Task</title>
  <g id="_2-2" data-name="2">
    <path d="M20,3A17,17,0,1,1,3,20,17,17,0,0,1,20,3m0-2A19,19,0,1,0,39,20,19,19,0,0,0,20,1h0Z" fill="#1956a1"/>
    <path d="M13.66,27.91a12,12,0,0,1,.21-2.28,6.39,6.39,0,0,1,.73-2A7.37,7.37,0,0,1,16,21.89a12,12,0,0,1,2.34-1.62l1.93-1a17.56,17.56,0,0,0,1.6-.92,4.73,4.73,0,0,0,1.1-1,1.84,1.84,0,0,0,.41-1.19,2.25,2.25,0,0,0-.81-1.68,3.3,3.3,0,0,0-2.33-.75,4.55,4.55,0,0,0-1.45.22,5.62,5.62,0,0,0-1.2.56,5.19,5.19,0,0,0-1,.75q-0.41.41-.73,0.79l-2-2.37a7.42,7.42,0,0,1,.92-0.8A9,9,0,0,1,16.34,12a11.21,11.21,0,0,1,2-.75,9.54,9.54,0,0,1,2.49-.31,8.18,8.18,0,0,1,2.53.37,5.7,5.7,0,0,1,1.9,1,4.33,4.33,0,0,1,1.19,1.54,4.54,4.54,0,0,1,.41,1.92,4.15,4.15,0,0,1-.44,1.93,6,6,0,0,1-1.08,1.49A7.18,7.18,0,0,1,24,20.26q-0.76.45-1.41,0.78l-1.39.69a12.53,12.53,0,0,0-1.51.91,9.75,9.75,0,0,0-1.32,1.1A3.28,3.28,0,0,0,17.53,25h9.69v2.9H13.66Z" fill="#e4572e"/>
  </g>
</svg>
