<svg id="_4" data-name="4" xmlns="http://www.w3.org/2000/svg" width="40" height="40" viewBox="0 0 40 40">
  <title>Intern-Responsive-Task</title>
  <g id="_4-2" data-name="4">
    <path d="M20,3A16.94,16.94,0,1,1,3,19.94,17,17,0,0,1,20,3m0-2A18.94,18.94,0,1,0,39,19.94,19,19,0,0,0,20,1h0Z" fill="#1956a1"/>
    <path d="M21.12,29.54V24.9h-9V22l10-12.87h2.2V22h2.58V24.9H24.34v4.64H21.12ZM15.42,22h6.06V14.07Z" fill="#e4572e"/>
  </g>
</svg>
