<svg id="Bookmark" xmlns="http://www.w3.org/2000/svg" width="22" height="22" viewBox="0 0 22 22">
  <title>Intern-Responsive-Task</title>
  <path id="Bookmark-2" data-name="Bookmark" d="M16.43,1H5.57A0.57,0.57,0,0,0,5,1.54V20.4a0.57,0.57,0,0,0,1,.4l5-5,5,5a0.57,0.57,0,0,0,1-.4V1.54A0.57,0.57,0,0,0,16.43,1ZM15.86,19L11.4,14.56a0.57,0.57,0,0,0-.81,0L6.14,19V2.11h9.71V19Z"/>
</svg>
