<svg id="Clock" xmlns="http://www.w3.org/2000/svg" width="20" height="20" viewBox="0 0 20 20">
  <title>Intern-Responsive-Task</title>
  <path id="Clock-2" data-name="Clock" d="M10,1a9,9,0,1,0,9,9A9,9,0,0,0,10,1Zm0.47,17V17.56a0.47,0.47,0,0,0-.95,0V18A8.06,8.06,0,0,1,2,10.47H2.44a0.47,0.47,0,1,0,0-.95H2A8.06,8.06,0,0,1,9.53,2V2.44a0.47,0.47,0,0,0,.95,0V2A8.06,8.06,0,0,1,18,9.53H17.56a0.47,0.47,0,1,0,0,.95H18A8.06,8.06,0,0,1,10.47,18Zm2.37-5.19a0.47,0.47,0,0,1-.67,0L9.67,10.33A0.46,0.46,0,0,1,9.53,10V4.32a0.47,0.47,0,0,1,.95,0V9.81l2.37,2.37A0.47,0.47,0,0,1,12.85,12.85Z"/>
</svg>
