<svg id="DottedLine" xmlns="http://www.w3.org/2000/svg" width="400" height="5" viewBox="0 0 400 5">
  <title>Intern-Responsive-Task</title>
  <g>
    <line x1="3.42" y1="2.5" x2="7.42" y2="2.5" fill="none" stroke="#c0c9cb" stroke-linejoin="bevel"/>
    <line x1="15.28" y1="2.5" x2="388.62" y2="2.5" fill="none" stroke="#c0c9cb" stroke-linejoin="bevel" stroke-dasharray="7.86 7.86"/>
    <line x1="392.55" y1="2.5" x2="396.55" y2="2.5" fill="none" stroke="#c0c9cb" stroke-linejoin="bevel"/>
  </g>
</svg>
