<svg id="RightBracket" xmlns="http://www.w3.org/2000/svg" width="80" height="280" viewBox="0 0 80 280">
  <title>Intern-Responsive-Task</title>
  <g id="RightBracket-2" data-name="RightBracket">
    <polygon points="11 271 7 275 72.81 275 72.81 271 69.28 271 11 271"/>
    <polygon points="11.33 9 69.28 9 72.81 9 72.81 5 7.33 5 11.33 9"/>
    <line x1="73.28" y1="275" x2="73.28" y2="5" fill="none" stroke="#000" stroke-miterlimit="10" stroke-width="5"/>
  </g>
</svg>
